{
    "Version": "2012-10-17",
    "Statement": [{
            "Effect": "Allow",
            "Action": ["dynamodb:PutItem"],
            "Resource": ["*"]
        },
        {
            "Effect": "Allow",
            "Action": ["sns:Publish"],
            "Resource": ["*"]
        }
    ]
}